<svg xmlns="http://www.w3.org/2000/svg" xmlns:xlink="http://www.w3.org/1999/xlink" width="512.001" height="512.001" viewBox="0 0 512.001 512.001">
  <defs>
    <linearGradient id="linear-gradient" x1="0.442" y1="-4.255" x2="0.489" y2="-4.529" gradientUnits="objectBoundingBox">
      <stop offset="0" stop-color="#c69c6d" stop-opacity="0"/>
      <stop offset="1" stop-color="#754c24"/>
    </linearGradient>
    <linearGradient id="linear-gradient-2" x1="0.29" y1="3.076" x2="0.217" y2="3.003" gradientUnits="objectBoundingBox">
      <stop offset="0" stop-color="#fff"/>
      <stop offset="1" stop-color="#bbb2b7"/>
    </linearGradient>
    <linearGradient id="linear-gradient-3" x1="0.181" y1="2.629" x2="0.365" y2="2.812" gradientUnits="objectBoundingBox">
      <stop offset="0" stop-color="#ffc200" stop-opacity="0"/>
      <stop offset="0.203" stop-color="#fb0" stop-opacity="0.204"/>
      <stop offset="0.499" stop-color="#ffa700" stop-opacity="0.498"/>
      <stop offset="0.852" stop-color="#f80" stop-opacity="0.851"/>
      <stop offset="1" stop-color="#ff7800"/>
    </linearGradient>
    <linearGradient id="linear-gradient-4" x1="0.488" y1="-9.934" x2="-0.003" y2="-10.424" gradientUnits="objectBoundingBox">
      <stop offset="0" stop-color="#363f3e"/>
      <stop offset="1" stop-color="#430c2a"/>
    </linearGradient>
  </defs>
  <g id="Design_icon" data-name="Design icon" transform="translate(-305 -2187)">
    <g id="Ruler" transform="translate(305 2698.845) rotate(-90)">
      <path id="Path_78" data-name="Path 78" d="M74.907,511.85,0,436.948,436.943,0l74.9,74.911Z" fill="#ff1493"/>
      <g id="Group_54" data-name="Group 54">
        <path id="Path_79" data-name="Path 79" d="M449.429,99.874a26.485,26.485,0,1,0-37.455,0,26.479,26.479,0,0,0,37.455,0" fill="#430c2a"/>
        <path id="Path_80" data-name="Path 80" d="M424.46,162.3l-18.723-18.723,12.482-12.483,18.724,18.724Z" fill="#430c2a"/>
        <path id="Path_81" data-name="Path 81" d="M399.495,187.262l-18.723-18.723,12.482-12.482,18.723,18.723Z" fill="#430c2a"/>
        <path id="Path_82" data-name="Path 82" d="M374.529,212.228,355.8,193.5l12.482-12.482,18.732,18.723Z" fill="#430c2a"/>
        <path id="Path_83" data-name="Path 83" d="M349.555,237.2,330.831,218.47l12.483-12.483,18.723,18.732Z" fill="#430c2a"/>
        <path id="Path_84" data-name="Path 84" d="M324.589,262.167,287.134,224.72l12.482-12.482,37.456,37.447Z" fill="#430c2a"/>
        <path id="Path_85" data-name="Path 85" d="M299.624,287.133,280.892,268.41l12.482-12.482,18.732,18.723Z" fill="#430c2a"/>
        <path id="Path_86" data-name="Path 86" d="M274.65,312.107l-18.723-18.732,12.482-12.482,18.723,18.732Z" fill="#430c2a"/>
        <path id="Path_87" data-name="Path 87" d="M249.685,337.073l-18.724-18.724,12.483-12.482,18.723,18.723Z" fill="#430c2a"/>
        <path id="Path_88" data-name="Path 88" d="M224.719,362.038l-18.733-18.723,12.483-12.483L237.2,349.556Z" fill="#430c2a"/>
        <path id="Path_89" data-name="Path 89" d="M199.744,387.012,162.3,349.557l12.482-12.483,37.447,37.456Z" fill="#430c2a"/>
        <path id="Path_90" data-name="Path 90" d="M174.779,411.977l-18.723-18.723,12.482-12.482,18.723,18.723Z" fill="#430c2a"/>
        <path id="Path_91" data-name="Path 91" d="M149.814,436.943,131.091,418.22l12.482-12.482L162.3,424.461Z" fill="#430c2a"/>
        <path id="Path_92" data-name="Path 92" d="M124.84,461.909l-18.724-18.724L118.6,430.7l18.723,18.724Z" fill="#430c2a"/>
        <path id="Path_93" data-name="Path 93" d="M99.874,486.883,81.151,468.16l12.482-12.483L112.357,474.4Z" fill="#430c2a"/>
      </g>
    </g>
    <g id="Pen" transform="translate(305 2187)">
      <path id="Path_64" data-name="Path 64" d="M120.736,391.264,70.42,340.947,53.556,357.811A46.151,46.151,0,0,0,42.356,376L.337,503.464a6.493,6.493,0,0,0,8.2,8.2L136,469.645a46.169,46.169,0,0,0,18.19-11.2l16.864-16.864Z" fill="#bbb2b7"/>
      <path id="Path_65" data-name="Path 65" d="M154.189,435.721a46.151,46.151,0,0,1-18.19,11.2L8.537,488.939a6.431,6.431,0,0,1-3.467.17L.337,503.464a6.493,6.493,0,0,0,8.2,8.2L136,469.645a46.169,46.169,0,0,0,18.19-11.2l16.864-16.864L159.69,430.219Z" fill="url(#linear-gradient)"/>
      <path id="Path_66" data-name="Path 66" d="M150.963,461.671a23.374,23.374,0,0,0,0-33.052l-.493-.493a23.344,23.344,0,0,0-20.169-6.559,5.531,5.531,0,0,1-6.325-6.3.018.018,0,0,1,0-.026c.078-.466.129-.933.181-1.4.013-.246.038-.48.052-.725.038-.506.052-1.011.052-1.53a23.3,23.3,0,0,0-6.844-16.513l-.493-.493c-.285-.285-.583-.557-.881-.83-.246-.221-.506-.453-.765-.661a14.437,14.437,0,0,0-1.245-.959c-.221-.169-.466-.337-.7-.493-.337-.234-.7-.466-1.062-.674s-.687-.375-1.024-.557c-.453-.246-.908-.466-1.361-.661-.375-.169-.765-.324-1.14-.467q-.525-.215-1.089-.388a22.95,22.95,0,0,0-2.826-.725c-.453-.091-.894-.169-1.335-.221s-.908-.1-1.348-.129-.894-.065-1.361-.065-.894-.013-1.335.013a22.885,22.885,0,0,0-2.7.259A5.536,5.536,0,0,1,90.43,381.7a23.07,23.07,0,0,0,.285-3.655,23.3,23.3,0,0,0-6.844-16.513l-.493-.493a23.375,23.375,0,0,0-33.052,0l284.3-284.3L435.259,177.372Z" fill="#960b57"/>
      <path id="Path_67" data-name="Path 67" d="M401.717,143.828,125.532,420.013a5.467,5.467,0,0,1-1.555-4.743.018.018,0,0,1,0-.026c.078-.466.129-.933.181-1.4.013-.246.038-.48.052-.725.038-.506.052-1.011.052-1.53a23.3,23.3,0,0,0-6.844-16.513l-.493-.493c-.285-.285-.583-.557-.881-.83-.246-.221-.506-.453-.765-.661a14.437,14.437,0,0,0-1.245-.959c-.234-.181-.466-.337-.7-.493-.337-.234-.7-.466-1.062-.674-.337-.181-.674-.389-1.024-.557-.453-.246-.908-.466-1.361-.661-.375-.169-.765-.324-1.14-.467q-.525-.215-1.089-.388a22.95,22.95,0,0,0-2.826-.725c-.428-.091-.881-.156-1.335-.221s-.881-.1-1.348-.129a11.644,11.644,0,0,0-1.361-.065c-.453-.013-.908,0-1.335.013a22.885,22.885,0,0,0-2.7.259,5.472,5.472,0,0,1-4.77-1.555L368.171,110.286Z" fill="#ff1493"/>
      <path id="Path_68" data-name="Path 68" d="M334.628,76.739l-284.3,284.3a23.375,23.375,0,0,1,33.052,0l.493.493A23.38,23.38,0,0,1,90.433,381.7a5.475,5.475,0,0,0,1.555,4.77L368.173,110.284Z" fill="#960b57"/>
      <path id="Path_69" data-name="Path 69" d="M469.671,142.965,369.035,42.33l31.523-31.523a36.893,36.893,0,0,1,52.177,0l48.459,48.459a36.893,36.893,0,0,1,0,52.177Z" fill="#960b57"/>
      <path id="Path_70" data-name="Path 70" d="M436.309,109.6l33.362,33.362,31.524-31.524a36.9,36.9,0,0,0,0-52.176L493.92,51.99Z" fill="#960b57"/>
      <path id="Path_71" data-name="Path 71" d="M474.17,138.466,373.534,37.831,334.621,76.744,435.257,177.379Z" fill="#bbb2b7"/>
      <path id="Path_72" data-name="Path 72" d="M448.228,164.409,347.592,63.773,334.621,76.744,435.257,177.379Z" fill="url(#linear-gradient-2)"/>
      <path id="Path_73" data-name="Path 73" d="M418.631,194,317.995,93.369l16.626-16.625L435.257,177.379Z" fill="url(#linear-gradient-3)"/>
      <path id="Path_74" data-name="Path 74" d="M461.2,151.437,360.563,50.8,347.592,63.773,448.228,164.409Z" fill="#bbb2b7"/>
      <path id="Path_75" data-name="Path 75" d="M10.981,471.179.339,503.464a6.493,6.493,0,0,0,8.2,8.2l32.285-10.642Z" fill="url(#linear-gradient-4)"/>
      <path id="Path_76" data-name="Path 76" d="M474.17,138.466,440.808,105.1l-38.913,38.913,33.362,33.362Z" fill="rgba(194,206,206,0)"/>
      <path id="Path_77" data-name="Path 77" d="M423.15,87.447,389.788,54.084,350.875,93l33.362,33.363Z" fill="#bbb2b7"/>
    </g>
  </g>
</svg>
