<svg xmlns="http://www.w3.org/2000/svg" width="23.786" height="14.54" viewBox="0 0 23.786 14.54">
  <g id="eye" transform="translate(0.536 0.5)">
    <path id="Path_56" data-name="Path 56" d="M11.357,98.725c-4.34,0-8.275,2.374-11.179,6.231a.9.9,0,0,0,0,1.073c2.9,3.861,6.84,6.236,11.179,6.236s8.275-2.374,11.179-6.231a.9.9,0,0,0,0-1.073C19.633,101.1,15.7,98.725,11.357,98.725Zm.311,11.537a4.777,4.777,0,1,1,4.456-4.456A4.78,4.78,0,0,1,11.669,110.262Z" transform="translate(0 -98.725)"  stroke-width="1"/>
  </g>
</svg>
